2019-09-30 11:49:45,239 ERROR: Exception on /index [POST] [in /home/suraj/Desktop/.virtualenv/flask/lib/python3.6/site-packages/flask/app.py:1891]
Traceback (most recent call last):
  File "/home/suraj/Desktop/.virtualenv/flask/lib/python3.6/site-packages/flask/app.py", line 2446, in wsgi_app
    response = self.full_dispatch_request()
  File "/home/suraj/Desktop/.virtualenv/flask/lib/python3.6/site-packages/flask/app.py", line 1951, in full_dispatch_request
    rv = self.handle_user_exception(e)
  File "/home/suraj/Desktop/.virtualenv/flask/lib/python3.6/site-packages/flask/app.py", line 1820, in handle_user_exception
    reraise(exc_type, exc_value, tb)
  File "/home/suraj/Desktop/.virtualenv/flask/lib/python3.6/site-packages/flask/_compat.py", line 39, in reraise
    raise value
  File "/home/suraj/Desktop/.virtualenv/flask/lib/python3.6/site-packages/flask/app.py", line 1949, in full_dispatch_request
    rv = self.dispatch_request()
  File "/home/suraj/Desktop/.virtualenv/flask/lib/python3.6/site-packages/flask/app.py", line 1935, in dispatch_request
    return self.view_functions[rule.endpoint](**req.view_args)
  File "/home/suraj/project/hacker_news/app/routes.py", line 37, in index
    return render_template('search_result.html', all_search_result = all_search_result)
  File "/home/suraj/Desktop/.virtualenv/flask/lib/python3.6/site-packages/flask/templating.py", line 138, in render_template
    ctx.app.jinja_env.get_or_select_template(template_name_or_list),
  File "/home/suraj/Desktop/.virtualenv/flask/lib/python3.6/site-packages/jinja2/environment.py", line 869, in get_or_select_template
    return self.get_template(template_name_or_list, parent, globals)
  File "/home/suraj/Desktop/.virtualenv/flask/lib/python3.6/site-packages/jinja2/environment.py", line 830, in get_template
    return self._load_template(name, self.make_globals(globals))
  File "/home/suraj/Desktop/.virtualenv/flask/lib/python3.6/site-packages/jinja2/environment.py", line 804, in _load_template
    template = self.loader.load(self, name, globals)
  File "/home/suraj/Desktop/.virtualenv/flask/lib/python3.6/site-packages/jinja2/loaders.py", line 125, in load
    code = environment.compile(source, name, filename)
  File "/home/suraj/Desktop/.virtualenv/flask/lib/python3.6/site-packages/jinja2/environment.py", line 591, in compile
    self.handle_exception(exc_info, source_hint=source_hint)
  File "/home/suraj/Desktop/.virtualenv/flask/lib/python3.6/site-packages/jinja2/environment.py", line 780, in handle_exception
    reraise(exc_type, exc_value, tb)
  File "/home/suraj/Desktop/.virtualenv/flask/lib/python3.6/site-packages/jinja2/_compat.py", line 37, in reraise
    raise value.with_traceback(tb)
  File "/home/suraj/project/hacker_news/app/templates/search_result.html", line 7, in template
    {{ for res in all_search_result['hits']['hits'] }}
  File "/home/suraj/Desktop/.virtualenv/flask/lib/python3.6/site-packages/jinja2/environment.py", line 497, in _parse
    return Parser(self, source, name, encode_filename(filename)).parse()
  File "/home/suraj/Desktop/.virtualenv/flask/lib/python3.6/site-packages/jinja2/parser.py", line 901, in parse
    result = nodes.Template(self.subparse(), lineno=1)
  File "/home/suraj/Desktop/.virtualenv/flask/lib/python3.6/site-packages/jinja2/parser.py", line 883, in subparse
    rv = self.parse_statement()
  File "/home/suraj/Desktop/.virtualenv/flask/lib/python3.6/site-packages/jinja2/parser.py", line 130, in parse_statement
    return getattr(self, 'parse_' + self.stream.current.value)()
  File "/home/suraj/Desktop/.virtualenv/flask/lib/python3.6/site-packages/jinja2/parser.py", line 268, in parse_block
    node.body = self.parse_statements(('name:endblock',), drop_needle=True)
  File "/home/suraj/Desktop/.virtualenv/flask/lib/python3.6/site-packages/jinja2/parser.py", line 165, in parse_statements
    result = self.subparse(end_tokens)
  File "/home/suraj/Desktop/.virtualenv/flask/lib/python3.6/site-packages/jinja2/parser.py", line 876, in subparse
    self.stream.expect('variable_end')
  File "/home/suraj/Desktop/.virtualenv/flask/lib/python3.6/site-packages/jinja2/lexer.py", line 384, in expect
    self.name, self.filename)
jinja2.exceptions.TemplateSyntaxError: expected token 'end of print statement', got 'res'
2019-09-30 11:49:52,379 ERROR: Exception on /index [POST] [in /home/suraj/Desktop/.virtualenv/flask/lib/python3.6/site-packages/flask/app.py:1891]
Traceback (most recent call last):
  File "/home/suraj/Desktop/.virtualenv/flask/lib/python3.6/site-packages/flask/app.py", line 2446, in wsgi_app
    response = self.full_dispatch_request()
  File "/home/suraj/Desktop/.virtualenv/flask/lib/python3.6/site-packages/flask/app.py", line 1951, in full_dispatch_request
    rv = self.handle_user_exception(e)
  File "/home/suraj/Desktop/.virtualenv/flask/lib/python3.6/site-packages/flask/app.py", line 1820, in handle_user_exception
    reraise(exc_type, exc_value, tb)
  File "/home/suraj/Desktop/.virtualenv/flask/lib/python3.6/site-packages/flask/_compat.py", line 39, in reraise
    raise value
  File "/home/suraj/Desktop/.virtualenv/flask/lib/python3.6/site-packages/flask/app.py", line 1949, in full_dispatch_request
    rv = self.dispatch_request()
  File "/home/suraj/Desktop/.virtualenv/flask/lib/python3.6/site-packages/flask/app.py", line 1935, in dispatch_request
    return self.view_functions[rule.endpoint](**req.view_args)
  File "/home/suraj/project/hacker_news/app/routes.py", line 37, in index
    return render_template('search_result.html', all_search_result = all_search_result)
  File "/home/suraj/Desktop/.virtualenv/flask/lib/python3.6/site-packages/flask/templating.py", line 138, in render_template
    ctx.app.jinja_env.get_or_select_template(template_name_or_list),
  File "/home/suraj/Desktop/.virtualenv/flask/lib/python3.6/site-packages/jinja2/environment.py", line 869, in get_or_select_template
    return self.get_template(template_name_or_list, parent, globals)
  File "/home/suraj/Desktop/.virtualenv/flask/lib/python3.6/site-packages/jinja2/environment.py", line 830, in get_template
    return self._load_template(name, self.make_globals(globals))
  File "/home/suraj/Desktop/.virtualenv/flask/lib/python3.6/site-packages/jinja2/environment.py", line 804, in _load_template
    template = self.loader.load(self, name, globals)
  File "/home/suraj/Desktop/.virtualenv/flask/lib/python3.6/site-packages/jinja2/loaders.py", line 125, in load
    code = environment.compile(source, name, filename)
  File "/home/suraj/Desktop/.virtualenv/flask/lib/python3.6/site-packages/jinja2/environment.py", line 591, in compile
    self.handle_exception(exc_info, source_hint=source_hint)
  File "/home/suraj/Desktop/.virtualenv/flask/lib/python3.6/site-packages/jinja2/environment.py", line 780, in handle_exception
    reraise(exc_type, exc_value, tb)
  File "/home/suraj/Desktop/.virtualenv/flask/lib/python3.6/site-packages/jinja2/_compat.py", line 37, in reraise
    raise value.with_traceback(tb)
  File "/home/suraj/project/hacker_news/app/templates/search_result.html", line 7, in template
    {{ for res in all_search_result['hits']['hits'] }}
  File "/home/suraj/Desktop/.virtualenv/flask/lib/python3.6/site-packages/jinja2/environment.py", line 497, in _parse
    return Parser(self, source, name, encode_filename(filename)).parse()
  File "/home/suraj/Desktop/.virtualenv/flask/lib/python3.6/site-packages/jinja2/parser.py", line 901, in parse
    result = nodes.Template(self.subparse(), lineno=1)
  File "/home/suraj/Desktop/.virtualenv/flask/lib/python3.6/site-packages/jinja2/parser.py", line 883, in subparse
    rv = self.parse_statement()
  File "/home/suraj/Desktop/.virtualenv/flask/lib/python3.6/site-packages/jinja2/parser.py", line 130, in parse_statement
    return getattr(self, 'parse_' + self.stream.current.value)()
  File "/home/suraj/Desktop/.virtualenv/flask/lib/python3.6/site-packages/jinja2/parser.py", line 268, in parse_block
    node.body = self.parse_statements(('name:endblock',), drop_needle=True)
  File "/home/suraj/Desktop/.virtualenv/flask/lib/python3.6/site-packages/jinja2/parser.py", line 165, in parse_statements
    result = self.subparse(end_tokens)
  File "/home/suraj/Desktop/.virtualenv/flask/lib/python3.6/site-packages/jinja2/parser.py", line 876, in subparse
    self.stream.expect('variable_end')
  File "/home/suraj/Desktop/.virtualenv/flask/lib/python3.6/site-packages/jinja2/lexer.py", line 384, in expect
    self.name, self.filename)
jinja2.exceptions.TemplateSyntaxError: expected token 'end of print statement', got 'res'
2019-09-30 11:50:13,748 INFO: Hacker news startup [in /home/suraj/project/hacker_news/app/__init__.py:41]
